{
  "project_info": {
    "project_number": "851961941536",
    "firebase_url": "https://subjoin-c8b66.firebaseio.com",
    "project_id": "subjoin-c8b66",
    "storage_bucket": "subjoin-c8b66.appspot.com"
  },
  "client": [
    {
      "client_info": {
        "mobilesdk_app_id": "1:851961941536:android:b2c5780bbc98a961",
        "android_client_info": {
          "package_name": "academy.learnprogramming.subjoin"
        }
      },
      "oauth_client": [
        {
          "client_id": "851961941536-7f487q6shtugvoogeat9c8l0be2bdlo3.apps.googleusercontent.com",
          "client_type": 1,
          "android_info": {
            "package_name": "academy.learnprogramming.subjoin",
            "certificate_hash": "1019e23745d18553cdca3c3b47bcdf74821c9355"
          }
        },
        {
          "client_id": "851961941536-s73ng7clgmjo0r8l360uq9bnth6osh3v.apps.googleusercontent.com",
          "client_type": 1,
          "android_info": {
            "package_name": "academy.learnprogramming.subjoin",
            "certificate_hash": "262fcf2663a9654a324b3693a0fa861861e6b154"
          }
        },
        {
          "client_id": "851961941536-9r6dijmp1g49q8pksvagcff3d094dd7m.apps.googleusercontent.com",
          "client_type": 3
        }
      ],
      "api_key": [
        {
          "current_key": "AIzaSyBvx88oeQO22OjmA1rlKQ2e4pBF24nMeZ4"
        }
      ],
      "services": {
        "analytics_service": {
          "status": 1
        },
        "appinvite_service": {
          "status": 2,
          "other_platform_oauth_client": [
            {
              "client_id": "851961941536-9r6dijmp1g49q8pksvagcff3d094dd7m.apps.googleusercontent.com",
              "client_type": 3
            }
          ]
        },
        "ads_service": {
          "status": 2
        }
      }
    }
  ],
  "configuration_version": "1"
}